{
  "name": "legendkeeper-integration",
  "title": "Legend Keeper Integration",
  "description": "Import JSON exports from Legend Keeper as Journal entries.",
  "author": "Asacolips",
  "version": "1.1.0",
  "minimumCoreVersion": "0.6.0",
  "compatibleCoreVersion": "0.7.9",
  "scripts": [
    "scripts/settings-extender.js"
  ],
  "esmodules": [
    "module/legendkeeper-integration.js"
  ],
  "styles": [
    "css/legendkeeper-integration.css"
  ],
  "languages": [
    {
      "lang": "en",
      "name": "English",
      "path": "lang/en.json"
    }
  ],
  "url": "https://gitlab.com/asacolips-projects/foundry-mods/legendkeeper-integration",
  "manifest": "https://gitlab.com/asacolips-projects/foundry-mods/legendkeeper-integration/raw/master/module.json",
  "download": "https://gitlab.com/asacolips-projects/foundry-mods/legendkeeper-integration/-/archive/1.1.0/legendkeeper-integration-master.zip"
}